d3mIndex,sentiment
0,3
1,3
2,3
3,3
4,3
5,3
7,4
9,4
10,4
11,3
12,3
13,3
14,3
15,3
16,3
17,4
18,4
19,4
20,3
21,3
22,3
23,3
24,3
25,3
26,3
27,3
28,3
29,3
30,3
31,3
32,3
33,3
34,3
35,3
36,2
37,2
38,3
39,3
40,3
41,3
42,3
43,3
44,3
45,3
46,3
47,3
48,3
49,3
50,3
51,3
52,3
53,3
54,3
55,2
56,4
57,3
58,3
59,4
61,4
62,2
63,2
64,4
65,4
66,3
67,4
68,3
69,3
70,3
71,4
72,4
73,3
74,4
75,2
76,4
77,2
78,4
79,4
80,4
81,4
82,3
83,3
84,3
85,5
86,2
87,3
89,3
90,4
91,2
92,4
93,3
94,3
95,3
96,3
97,2
98,3
99,3
101,3
102,3
103,3
104,3
105,3
106,4
108,3
109,3
110,3
111,3
112,3
113,3
114,4
115,4
116,4
117,4
118,3
119,3
120,3
121,4
122,3
123,3
124,4
125,3
126,3
127,3
128,3
129,3
130,3
131,3
132,3
133,3
134,3
135,3
136,4
137,3
138,3
139,3
140,3
141,3
142,3
143,3
144,2
146,3
147,3
148,4
149,2
150,2
151,4
153,3
154,3
155,3
156,3
157,3
158,3
159,4
160,3
161,3
162,3
176,3
177,3
178,4
179,3
180,3
181,3
182,3
183,3
184,3
186,3
187,3
188,3
189,3
190,3
191,3
192,3
193,3
194,2
195,2
196,3
197,4
198,3
199,3
200,4
201,3
202,3
203,3
204,3
205,3
206,5
207,4
208,3
209,3
210,3
211,3
216,3
217,4
218,4
219,3
221,4
222,3
223,2
224,2
225,4
226,4
227,3
228,3
229,4
230,3
231,4
232,4
233,4
234,2
235,3
236,3
237,4
238,4
239,4
240,4
241,3
242,4
243,4
244,4
245,4
246,3
247,3
248,3
249,4
250,4
251,1
252,4
253,2
254,2
255,2
256,1
257,3
258,4
259,4
260,4
261,4
262,2
263,3
264,4
265,4
266,4
267,3
268,4
269,4
270,4
271,3
272,3
274,1
275,4
276,3
277,4
278,4
279,4
280,4
281,4
282,3
283,3
285,4
286,3
287,3
289,3
290,3
291,4
292,4
293,3
294,4
295,4
296,4
297,4
298,4
299,3
300,4
301,3
302,4
303,3
304,4
305,3
306,4
307,4
308,4
309,5
310,4
311,4
312,4
313,3
314,4
315,4
316,4
317,3
318,3
319,4
320,5
322,3
323,4
324,4
325,3
326,4
327,4
328,2
329,3
330,4
331,3
332,4
333,3
334,2
335,2
336,4
337,4
338,4
339,4
340,3
341,3
342,3
343,5
344,3
345,2
346,4
347,5
348,2
349,4
350,4
351,4
352,3
353,4
354,4
355,4
356,5
357,4
358,4
359,4
360,3
361,4
362,4
364,4
365,4
366,4
367,3
368,5
369,2
370,4
371,4
372,3
373,2
374,4
375,2
376,5
377,4
378,4
379,2
380,5
381,4
382,4
383,4
384,4
385,4
386,3
387,4
388,3
389,4
390,4
391,4
392,4
393,3
394,3
395,4
396,3
397,4
398,4
399,4
400,3
401,4
402,4
403,3
404,4
405,3
406,4
407,4
408,3
409,4
411,4
412,4
413,4
414,4
415,4
416,4
417,4
418,2
419,4
420,2
421,3
422,4
423,2
424,2
425,3
426,3
427,3
428,4
429,3
430,4
431,3
432,4
433,4
434,4
435,3
436,2
437,4
438,4
439,4
440,2
441,2
442,4
443,4
444,3
445,4
446,4
447,4
448,3
449,4
450,4
451,4
452,4
453,4
454,4
455,4
456,4
457,4
458,4
459,4
460,3
461,4
462,4
463,3
464,4
465,4
466,5
467,3
468,2
469,4
470,4
471,4
472,4
473,4
474,3
475,4
476,3
477,3
478,2
479,4
480,4
481,3
482,4
483,4
484,4
485,4
486,4
487,2
488,4
489,4
490,4
491,4
492,4
493,3
494,4
495,3
496,2
497,2
498,2
499,4
500,4
501,3
502,4
503,4
504,4
505,4
506,4
507,4
508,5
509,2
510,4
511,4
512,4
513,3
514,4
515,3
516,3
517,3
518,4
519,4
520,4
521,4
522,3
523,4
524,4
525,4
526,4
527,4
528,4
529,4
530,4
531,4
532,4
533,4
534,4
535,4
536,4
537,4
538,4
539,4
540,4
541,4
542,5
543,4
544,4
545,4
546,4
547,4
548,4
549,2
550,4
551,4
552,4
553,3
554,3
555,4
556,4
557,5
558,2
559,3
560,4
561,3
562,4
563,4
564,4
565,4
566,4
567,4
568,4
569,4
570,4
571,4
572,4
573,3
574,4
575,5
576,4
577,4
578,4
579,4
580,3
581,3
582,4
583,4
584,4
585,2
586,4
587,3
588,4
589,4
590,4
591,3
592,2
593,4
594,4
595,4
596,3
597,4
598,4
599,2
600,4
601,3
602,3
603,2
604,4
605,3
606,4
607,2
608,3
609,4
610,3
611,2
612,4
613,4
614,4
615,2
616,4
617,4
618,4
619,4
620,4
621,2
622,4
623,3
624,4
625,3
626,2
627,4
628,4
629,4
630,5
631,3
633,4
634,4
635,4
636,4
637,4
638,4
639,4
640,4
641,4
642,2
643,4
644,4
645,4
646,2
647,4
648,4
649,4
650,4
651,4
652,4
653,4
654,4
655,4
656,4
657,2
658,3
659,3
660,2
661,4
662,4
663,5
664,3
665,4
666,1
667,4
668,2
669,4
670,4
671,4
672,4
673,4
674,4
675,4
676,4
677,4
678,3
681,4
682,4
683,4
684,4
685,3
686,4
687,4
688,2
689,3
690,4
691,4
692,4
694,3
695,4
697,4
698,3
699,4
700,2
701,4
703,3
704,2
705,4
706,2
707,1
708,4
709,4
710,3
711,4
712,2
713,4
714,4
715,4
716,4
717,4
718,4
721,4
722,4
723,4
724,4
725,4
726,4
727,4
728,5
729,3
730,4
731,4
732,2
733,4
734,4
735,4
736,5
737,5
738,4
739,5
740,4
741,3
742,3
743,2
744,4
745,4
746,2
747,2
748,3
749,4
750,2
751,3
752,3
753,4
754,4
755,2
756,3
757,3
758,3
759,4
760,4
761,2
762,4
763,4
764,4
765,4
766,3
767,4
768,4
769,5
770,3
771,4
772,2
773,1
774,4
775,5
776,4
777,4
778,4
779,3
780,4
781,4
782,4
783,4
784,4
785,4
787,4
788,3
789,2
790,4
791,4
792,2
793,4
794,2
795,3
796,3
797,4
798,4
799,3
800,4
801,1
802,4
803,3
804,3
805,4
806,4
807,3
808,4
809,4
810,3
811,4
812,2
813,4
814,3
815,4
816,3
817,4
818,2
819,4
820,3
821,3
822,4
823,4
824,4
825,4
826,4
827,4
828,4
829,4
830,4
831,4
833,2
834,4
835,4
836,2
837,3
838,4
839,4
840,4
841,4
842,2
843,4
844,4
845,4
846,4
847,4
848,4
849,4
850,4
851,4
852,4
853,4
854,4
855,4
856,4
857,4
858,4
859,4
860,4
861,4
862,4
863,4
864,4
865,4
866,4
867,4
868,4
869,4
870,4
871,4
872,4
873,2
874,4
875,4
876,4
877,4
878,4
879,4
880,4
881,4
882,3
883,4
884,4
885,4
886,3
887,4
888,4
889,4
890,4
891,4
892,4
893,4
894,4
895,4
896,4
897,4
898,3
899,4
900,4
902,4
903,1
904,4
905,4
906,4
907,4
908,4
909,4
910,4
911,4
912,4
913,2
914,4
915,4
916,4
917,4
918,4
920,3
921,4
922,3
923,3
924,4
925,4
926,4
927,3
928,4
929,3
930,4
931,4
932,3
933,3
934,2
935,2
936,4
937,4
938,4
939,4
940,4
941,4
942,4
943,3
944,4
945,3
946,4
947,4
948,4
949,4
950,4
951,4
952,4
953,4
954,3
955,3
956,5
957,4
958,3
959,4
960,4
961,3
962,4
963,2
964,3
965,4
966,4
967,3
968,4
969,4
970,4
971,3
972,4
973,4
974,3
975,3
976,2
977,4
978,3
979,3
980,4
981,4
982,3
983,4
984,2
985,4
986,4
987,4
988,4
989,4
990,4
991,3
992,3
993,2
994,3
995,4
996,2
997,4
998,4
999,4
1000,3
1001,2
1002,4
1003,5
1004,4
1005,1
1006,2
1007,3
1008,4
1009,2
1010,4
1012,4
1013,4
1014,3
1015,2
1016,2
1017,4
1018,3
1019,4
1020,3
1021,2
1022,3
1023,4
1024,3
1025,3
1026,2
1027,4
1028,2
1029,4
1030,4
1031,4
1032,2
1033,3
1034,4
1035,3
1036,4
1037,3
1038,4
1039,4
1040,4
1041,4
1042,4
1043,3
1044,4
1045,4
1046,2
1047,2
1048,4
1049,3
1050,3
1051,3
1052,2
1053,4
1054,2
1055,3
1056,4
1057,4
1058,5
1059,2
1060,2
1061,3
1062,4
1063,5
1064,4
1065,3
1066,4
1067,4
1068,4
1069,4
1070,4
1071,4
1072,4
1073,4
1074,2
1075,4
1076,4
1077,4
1078,4
1079,3
1080,5
1081,4
1082,4
1083,3
1084,4
1085,5
1086,3
1087,4
1088,5
1089,3
1090,4
1091,4
1092,3
1093,4
1094,2
1095,4
1096,4
1097,3
1098,4
1099,4
1100,4
1101,3
1102,3
1103,4
1104,4
1105,2
1106,4
1107,4
1108,4
1109,3
1111,4
1112,3
1113,4
1114,4
1115,4
1116,4
1117,4
1118,2
1119,4
1120,3
1121,2
1122,4
1123,4
1124,3
1125,4
1126,4
1127,4
1128,4
1129,4
1130,2
1131,4
1132,4
1133,2
1134,2
1135,4
1136,4
1137,3
1138,3
1139,4
1140,4
1141,4
1142,5
1143,3
1144,4
1145,3
1146,1
1147,4
1148,4
1149,4
1150,3
1151,3
1152,3
1153,3
1154,4
1155,2
1156,4
1157,4
1158,4
1159,3
1160,4
1161,4
1162,3
1163,3
1164,4
1165,3
1167,3
1168,4
1169,4
1170,4
1171,4
1172,3
1173,3
1174,5
1175,4
1176,4
1177,4
1178,3
1179,4
1180,2
1181,5
1182,4
1183,4
1184,4
1185,4
1186,3
1187,4
1188,5
1189,5
1190,3
1191,5
1192,3
1193,4
1194,2
1195,3
1196,4
1197,2
1198,3
1199,4
1200,4
1201,3
1202,3
1203,4
1204,4
1205,3
1206,4
1207,4
1208,4
1209,4
1210,5
1211,3
1212,4
1213,4
1214,4
1215,4
1216,4
1217,4
1218,4
1219,4
1220,3
1221,4
1222,2
1223,4
1224,4
1225,3
1226,4
1227,5
1228,3
1229,5
1230,3
1231,4
1232,4
1233,2
1234,3
1235,4
1236,4
1237,3
1238,2
1239,4
1240,4
1241,4
1242,2
1243,3
1244,3
1245,4
1246,4
1247,4
1248,3
1249,4
1250,3
1251,2
1252,3
1253,4
1254,4
1255,2
1256,4
1257,2
1258,5
1259,4
1260,3
1261,4
1262,1
1263,2
1264,4
1265,4
1266,4
1267,3
1268,3
1269,3
1270,3
1271,3
1272,3
1273,3
1274,2
1275,4
1276,3
1277,3
1278,4
1279,4
1280,4
1281,4
1282,2
1283,4
1284,3
1285,4
1286,3
1287,4
1288,4
1289,2
1290,3
1291,4
1292,4
1293,3
1294,3
1295,4
1296,3
1297,2
1298,4
1299,4
1300,5
1301,2
1302,2
1303,1
1304,4
1305,3
1306,3
1307,3
1308,4
1309,4
1310,4
1311,4
1312,3
1313,4
1314,4
1315,4
1316,2
1317,4
1318,2
1319,3
1320,4
1321,4
1322,4
1323,2
1324,3
1325,2
1326,2
1327,4
1328,3
1329,4
1330,4
1331,5
1332,3
1333,4
1334,4
1335,3
1336,3
1337,4
1338,3
1339,3
1340,2
1341,3
1342,3
1346,3
1348,3
1350,3
1351,3
1353,3
1354,3
1356,4
1357,2
1358,4
1359,2
1360,4
1361,4
1362,3
1363,4
1364,3
1365,4
1366,4
1368,4
1369,4
1370,5
1371,3
1372,3
1373,3
1374,4
1375,4
1376,4
1377,3
1378,4
1379,4
1380,4
1381,5
1382,4
1383,4
1384,3
1385,4
1386,2
1389,4
1390,3
1391,4
1392,3
1393,3
1394,3
1395,3
1396,4
1397,4
1398,2
1399,4
1400,4
1401,4
1402,4
1403,3
1404,3
1405,4
1406,3
1407,4
1408,3
1409,4
1410,3
1411,2
1412,5
1413,4
1414,3
1415,3
1416,4
1417,2
1418,4
1419,4
1420,4
1421,3
1422,4
1423,4
1424,3
1425,3
1426,4
1427,3
1429,2
1430,3
1431,4
1432,4
1433,3
1434,4
1435,3
1436,3
1437,4
1438,2
1439,4
1440,3
1441,4
1442,4
1443,4
1444,4
1445,2
1446,4
1447,5
1448,4
1449,5
1450,4
1451,3
1452,4
1453,4
1454,3
1455,2
1456,4
1457,4
1458,3
1459,3
1460,4
1461,4
1462,4
1463,3
1464,4
1465,2
1466,2
1467,4
1468,3
1469,4
1470,3
1471,3
1472,4
1473,1
1474,1
1475,4
1476,3
1477,3
1478,4
1479,5
1480,4
1481,4
1482,2
1483,3
1484,3
1485,4
1486,4
1487,3
1488,4
1489,3
1490,3
1491,3
1492,4
1493,3
1494,4
1495,4
1496,3
1497,3
1498,4
1499,3
1500,4
1501,2
1502,4
1503,4
1504,4
1505,5
1506,3
1507,4
1508,4
1509,4
1510,4
1511,4
1512,4
1513,4
1514,2
1515,2
1516,4
1517,4
1518,4
1519,3
1520,1
1521,1
1522,3
1523,3
1524,4
1525,2
1526,4
1527,3
1528,2
1529,3
1530,4
1531,4
1532,5
1533,4
1534,3
1535,4
1536,4
1537,3
1538,5
1539,4
1540,2
1541,4
1542,4
1543,5
1544,1
1545,2
1546,4
1547,4
1548,3
1549,2
1550,2
1551,4
1552,4
1553,4
1554,2
1555,4
1556,2
1557,3
1558,4
1559,4
1560,4
1561,4
1562,3
1564,2
1565,3
1566,4
1567,4
1568,4
1569,5
1570,4
1571,5
1572,3
1573,2
1574,4
1575,3
1577,3
1578,4
1579,4
1580,5
1581,4
1582,4
1583,4
1584,3
1585,4
1586,4
1587,4
1588,2
1589,2
1590,4
1591,4
1593,4
1594,4
1595,2
1596,3
1597,2
1598,4
1599,3
1600,2
1601,3
1602,2
1603,4
1604,4
1605,2
1606,4
1607,4
1608,3
1609,4
1610,4
1611,4
1612,3
1613,3
1614,4
1615,2
1616,3
1617,4
1618,4
1619,3
1620,4
1621,4
1622,3
1623,4
1624,4
1625,2
1626,4
1627,4
1628,3
1629,4
1630,3
1631,2
1632,3
1633,1
1634,4
1635,4
1636,2
1637,4
1638,4
1640,4
1641,3
1642,3
1643,4
1644,4
1646,4
1647,2
1648,2
1649,3
1650,4
1651,3
1652,3
1653,3
1654,4
1655,2
1656,2
1657,5
1658,5
1659,4
1660,4
1661,3
1662,3
1663,4
1664,2
1665,4
1666,5
1667,3
1668,2
1669,4
1670,2
1671,4
1672,4
1673,5
1675,3
1676,4
1677,4
1678,2
1679,3
1681,3
1682,4
1684,3
1686,4
1687,4
1688,3
1689,3
1690,5
1691,2
1693,2
1694,4
1695,3
1696,4
1697,3
1698,3
1699,4
1700,2
1701,3
1702,2
1703,4
1704,2
1705,2
1706,2
1707,1
1708,3
1709,3
1710,4
1711,4
1712,4
1713,2
1714,1
1715,3
1716,2
1717,2
1718,2
1720,4
1721,4
1723,2
1724,4
1725,2
1726,3
1727,4
1728,2
1729,4
1730,3
1731,4
1732,4
1733,4
1734,4
1735,3
1736,4
1737,4
1738,4
1739,4
1740,3
1741,4
1742,4
1743,4
1744,4
1745,4
1746,4
1747,4
1748,4
1749,4
1750,4
1751,4
1752,4
1753,4
1754,4
1755,4
1756,3
1757,4
1758,4
1759,3
1760,4
1761,4
1762,3
1763,4
1764,4
1765,2
1766,4
1767,4
1768,3
1769,4
1770,4
1771,2
1772,3
1773,4
1774,4
1775,4
1777,4
1778,4
1779,4
1780,2
1781,4
1782,3
1783,4
1784,4
1785,4
1786,2
1787,2
1788,1
1789,4
1790,4
1791,4
1792,4
1793,4
1794,4
1795,2
1796,4
1797,3
1798,4
1799,4
1800,3
1801,4
1802,4
1803,4
1804,4
1805,4
1806,4
1807,2
1808,3
1809,4
1810,3
1811,4
1813,4
1814,3
1815,4
1816,4
1818,4
1819,3
1820,2
1821,3
1822,1
1824,4
1825,3
1826,2
1827,4
1828,3
1829,4
1830,3
1831,4
1832,4
1833,4
1834,4
1835,4
1836,4
1837,4
1838,4
1839,4
1840,4
1841,3
1842,4
1843,4
1844,2
1845,3
1846,4
1847,2
1848,4
1849,4
1850,3
1851,4
1852,4
1853,3
1854,4
1855,2
1856,4
1857,4
1858,2
1859,3
1860,4
1861,4
1862,4
1863,3
1864,2
1865,4
1868,2
1869,4
1870,4
1871,4
1872,1
1873,3
1874,4
1875,4
1876,2
1877,3
1878,4
1879,2
1880,3
1881,2
1882,4
1883,3
1884,4
1885,4
1886,4
1887,4
1888,4
1889,3
1890,4
1891,4
1892,3
1893,3
1894,4
1895,2
1896,4
1897,4
1898,3
1899,3
1900,4
1901,4
1902,4
1903,3
1904,2
1905,4
1906,4
1907,4
1908,4
1909,3
1910,3
1911,4
1912,4
1913,3
1914,4
1915,2
1916,4
1917,4
1918,2
1919,4
1920,4
1921,3
1922,5
1923,3
1924,5
1925,1
1926,4
1927,4
1928,2
1929,3
1930,4
1931,5
1932,4
1933,4
1934,2
1935,3
1936,4
1937,3
1938,4
1939,4
1940,4
1941,4
1942,4
1943,4
1944,4
1945,4
1946,4
1947,4
1948,4
1949,4
1950,3
1951,1
1952,4
1953,4
1954,4
1955,4
1956,4
1957,4
1958,4
1959,4
1960,3
1961,3
1962,4
1963,4
1964,4
1965,4
1966,3
1967,4
1968,4
1969,4
1970,3
1971,4
1972,4
1973,2
1974,3
1975,4
1976,4
1977,4
1978,4
1979,4
1980,4
1981,4
1982,4
1983,4
1984,3
1985,4
1986,4
1988,2
1989,4
1990,4
1991,4
1992,3
1993,3
1994,3
1995,4
1997,2
1998,4
1999,3
2000,4
2001,4
2002,4
2003,4
2004,4
2005,4
2006,4
2007,4
2008,3
2009,4
2010,4
2011,2
2012,2
2013,4
2014,4
2015,4
2016,4
2018,1
2019,4
2020,3
2021,4
2022,4
2023,4
2024,2
2025,4
2026,4
2027,4
2028,3
2029,3
2030,3
2031,2
2032,2
2033,3
2034,3
2035,3
2036,4
2037,4
2038,4
2039,5
2040,4
2041,3
2042,1
2043,3
2044,3
2045,4
2046,4
2047,4
2048,2
2049,4
2050,2
2051,4
2052,3
2053,4
2054,3
2055,2
2056,4
2057,4
2058,3
2059,2
2060,3
2061,5
2062,4
2063,4
2064,4
2065,2
2066,4
2067,3
2068,3
2069,3
2070,2
2071,4
2072,2
2073,4
2074,4
2075,3
2076,4
2077,2
2078,4
2079,1
2080,3
2081,2
2082,3
2083,4
2084,4
2085,3
2086,1
2087,4
2088,3
2089,4
2090,4
2091,2
2092,2
2093,4
2094,3
2095,3
2096,3
2097,4
2098,3
2099,3
2100,3
2101,2
2102,4
2103,2
2104,2
2105,4
2106,3
2107,3
2108,3
2109,3
2110,4
2111,4
2112,2
2113,4
2114,4
2115,4
2116,4
2117,4
2119,4
2120,4
2121,5
2122,4
2123,4
2124,4
2125,3
2126,4
2127,2
2128,4
2129,2
2130,4
2131,4
2132,4
2133,1
2134,4
2135,3
2136,2
2137,4
2138,4
2139,4
2140,4
2141,3
2142,4
2143,4
2144,4
2145,4
2146,4
2147,4
2148,4
2149,4
2151,2
2152,4
2153,4
2154,3
2155,4
2156,4
2157,4
2158,4
2159,3
2160,4
2161,2
2162,4
2163,3
2164,3
2165,4
2166,3
2167,2
2168,4
2169,4
2170,2
2171,4
2172,5
2173,4
2174,3
2175,4
2176,5
2177,4
2178,4
2179,4
2180,4
2181,4
2182,3
2183,4
2184,3
2185,4
2186,3
2187,2
2188,4
2189,4
2190,4
2191,5
2192,4
2193,4
2194,4
2195,4
2196,3
2197,4
2198,4
2199,4
2200,3
2201,1
2202,1
2203,2
2204,4
2205,4
2206,3
2207,4
2208,4
2209,3
2210,3
2211,4
2212,4
2213,4
2214,4
2216,4
2217,3
2218,2
2219,2
2220,3
2221,2
2222,4
2223,3
2224,2
2225,2
2226,3
2227,2
2228,2
2229,3
2230,3
2231,3
2232,4
2233,3
2234,4
2235,4
2236,4
2237,4
2239,1
2240,4
2241,1
2242,2
2243,4
2244,3
2245,4
2246,4
2247,4
2248,4
2249,4
2250,2
2251,4
2252,3
2253,4
2254,2
2255,2
2256,3
2257,4
2258,4
2259,1
2260,3
2261,3
2262,4
2263,3
2264,2
2265,4
2266,2
2267,3
2268,3
2269,3
2270,3
2271,3
2272,4
2273,3
2274,2
2275,3
2276,4
2277,3
2278,3
2279,2
2280,5
2281,2
2282,2
2283,3
2284,4
2285,3
2286,3
2287,5
2288,4
2289,2
2290,2
2291,4
2292,4
2293,2
2294,4
2296,4
2297,4
2298,4
2299,3
2300,2
2301,4
2302,4
2303,2
2304,2
2305,3
2306,3
2307,3
2308,2
2309,4
2310,4
2311,3
2312,4
2313,4
2314,2
2316,2
2317,4
2318,2
2319,4
2320,4
2321,3
2322,4
2323,2
2324,4
2325,3
2326,4
2327,4
2328,2
2329,5
2330,4
2332,4
2333,2
2334,4
2335,4
2336,3
2337,5
2338,4
2339,3
2340,3
2341,2
2342,4
2343,4
2344,4
2345,4
2346,4
2347,4
2348,4
2349,4
2350,4
2351,4
2352,4
2353,2
2354,4
2355,3
2356,4
2357,4
2358,4
2359,4
2360,4
2361,4
2362,3
2363,2
2364,2
2365,4
2366,4
2367,4
2368,4
2369,4
2370,4
2371,4
2372,2
2373,3
2374,5
2375,4
2376,4
2377,3
2378,4
2379,3
2380,4
2381,2
2382,4
2383,3
2384,3
2385,4
2386,2
2387,2
2388,4
2389,4
2390,4
2391,4
2392,3
2393,4
2394,4
2395,4
2396,3
2397,3
2398,4
2399,2
2400,4
2401,4
2402,4
2403,4
2404,3
2405,4
2406,3
2407,4
2408,4
2410,4
2411,3
2412,4
2413,3
2414,3
2415,3
2417,4
2418,4
2419,1
2420,2
2421,3
2422,4
2423,3
2424,2
2425,3
2426,2
2427,3
2428,2
2429,2
2430,3
2431,3
2432,2
2433,4
2434,4
2435,4
2436,4
2437,2
2438,3
2439,3
2440,3
2441,4
2442,3
2443,4
2444,4
2445,4
2446,4
2447,3
2448,5
2449,2
2450,2
2451,3
2452,4
2453,3
2454,3
2455,4
2456,4
2457,5
2458,3
2459,4
2460,4
2461,2
2462,3
2463,5
2464,4
2465,3
2466,4
2467,2
2468,3
2469,3
2470,4
2471,4
2472,2
2473,2
2474,4
2475,3
2476,3
2477,2
2478,4
2479,3
2480,3
2481,4
2482,4
2483,4
2484,2
2485,4
2486,3
2487,4
2488,3
2489,4
2490,4
2491,3
2492,3
2493,4
2494,2
2495,4
2496,4
2497,4
2498,3
2500,4
2501,3
2502,4
2503,4
2504,4
2505,2
2506,3
2507,2
2508,2
2509,2
2510,4
2511,4
2512,4
2513,5
2514,5
2515,3
2516,3
2517,4
2518,3
2519,3
2520,4
2521,4
2522,3
2523,2
2524,3
2525,3
2526,4
2527,4
2528,2
2529,2
2530,4
2531,3
2532,4
2533,3
2534,4
2535,4
2536,4
2537,4
2538,3
2539,4
2540,5
2541,3
2542,3
2543,4
2544,3
2545,4
2546,3
2547,4
2548,3
2549,4
2550,4
2551,3
2552,4
2553,4
2554,5
2555,4
2556,4
2557,4
2558,2
2559,2
2560,3
2561,4
2562,4
2563,4
2564,4
2565,4
2567,2
2568,3
2569,2
2570,4
2571,4
2572,3
2573,5
2574,3
2575,4
2576,2
2578,4
2579,4
2580,4
2581,2
2582,4
2583,4
2584,2
2586,2
2587,2
2590,4
2591,3
2592,4
2593,3
2594,2
2595,4
2596,2
2597,2
2598,4
2599,4
2601,2
2603,3
2604,5
2605,4
2607,4
2608,4
2609,4
2610,4
2611,3
2612,3
2613,3
2614,2
2615,3
2616,4
2617,3
2618,5
2619,4
2620,3
2621,3
2622,4
2623,4
2624,4
2625,4
2626,4
2627,4
2628,4
2629,3
2630,2
2632,4
2633,5
2634,4
2635,2
2636,4
2637,3
2638,3
2639,4
2640,3
2641,3
2642,5
2643,4
2644,5
2645,2
2646,4
2647,4
2648,4
2649,4
2650,4
2651,4
2652,3
2653,4
2654,3
2655,4
2656,3
2657,4
2658,4
2659,4
2660,2
2661,4
2662,4
2663,4
2664,4
2665,4
2666,2
2667,4
2668,2
2669,4
2670,3
2671,4
2672,4
2673,4
2674,2
2675,2
2676,3
2677,2
2678,4
2679,3
2680,5
2681,4
2682,4
2683,4
2684,4
2685,2
2686,3
2687,4
2688,4
2689,3
2690,3
2691,4
2692,4
2693,4
2694,4
2695,4
2696,4
2697,4
2698,4
2699,3
2700,4
2701,4
2702,4
2703,4
2704,4
2705,3
2706,3
2707,3
2708,3
2709,5
2710,3
2711,2
2712,4
2713,2
2714,4
2715,2
2716,4
2717,3
2718,4
2719,3
2720,4
2721,4
2722,3
2723,4
2724,4
2725,1
2726,4
2727,3
2728,2
2729,2
2730,3
2731,4
2733,4
2734,4
2736,4
2737,2
2738,4
2739,4
2740,3
2741,3
2743,2
2744,2
2745,2
2746,2
2747,3
2748,4
2749,3
2750,2
2751,3
2753,3
2755,3
2756,4
2757,5
2758,4
2759,3
2760,2
2761,3
2762,4
2763,1
2764,2
2765,4
2766,3
2767,4
2768,5
2769,5
2770,3
2771,4
2772,3
2773,5
2774,3
2775,2
2776,2
2777,5
2778,4
2779,4
2780,1
2781,5
2782,4
2783,3
2784,4
2785,3
2786,2
2787,3
2788,5
2789,4
2790,5
2791,3
2792,4
2793,4
2794,4
2795,4
2796,3
2797,4
2798,4
2799,2
2800,4
2801,3
2802,4
2803,3
2804,4
2805,5
2806,4
2807,4
2808,3
2809,4
2810,3
2811,2
2812,3
2815,3
2816,4
2817,4
2818,4
2819,4
2820,4
2821,3
2822,3
2823,3
2824,2
2825,3
2826,3
2828,4
2829,3
2830,3
2831,2
2832,4
2834,4
2835,3
2836,3
2837,3
2838,3
2839,3
2840,3
2841,3
2842,2
2843,2
2844,3
2845,3
2846,4
2847,3
2848,4
2849,4
2851,4
2852,4
2853,3
2854,4
2856,2
2858,3
2859,3
2860,3
2861,4
2862,3
2863,4
2864,4
2865,4
2866,4
2867,3
2868,2
2869,2
2870,3
2871,4
2872,4
2873,3
2874,4
2875,2
2876,4
2877,3
2878,3
2879,4
2880,3
2881,3
2882,5
2883,3
2884,3
2885,4
2886,4
2887,4
2888,2
2889,3
2890,2
2891,4
2892,4
2893,4
2894,4
2896,4
2897,3
2898,3
2899,3
2901,4
2902,2
2903,3
2904,5
2905,4
2906,5
2907,3
2908,2
2909,3
2910,3
2911,3
2912,3
2913,2
2914,4
2915,4
2916,3
2917,4
2919,4
2921,3
2922,4
2923,2
2924,4
2926,4
2927,4
2928,4
2929,4
2930,4
2931,4
2932,3
2933,4
2934,4
2935,3
2936,3
2938,4
2939,2
2940,2
2941,2
2942,4
2943,2
2944,4
2945,4
2946,4
2947,2
2948,4
2949,4
2950,3
2951,3
2952,4
2953,4
2954,3
2955,4
2956,5
2957,4
2958,4
2959,2
2960,3
2961,4
2962,3
2963,2
2964,3
2965,5
2966,4
2967,3
2968,3
2969,4
2970,4
2971,3
2972,2
2973,4
2974,4
2975,4
2976,3
2977,3
2978,3
2979,4
2980,3
2981,3
2982,3
2983,4
2984,4
2985,4
2986,4
2987,4
2988,4
2989,3
2990,2
2991,4
2992,4
2993,3
2994,4
2995,4
2996,2
2997,4
2998,4
2999,4
3000,4
3001,4
3002,5
3003,3
3004,4
3005,4
3006,4
3007,3
3008,3
3009,4
3010,4
3011,2
3012,4
3013,3
3014,4
3015,4
3016,3
3017,3
3018,2
3019,4
3020,3
3021,4
3022,4
3023,4
3024,3
3025,4
3026,2
3027,4
3028,4
3029,4
3030,3
3032,4
3033,4
3035,2
3036,3
3037,4
3038,4
3039,4
3040,2
3041,4
3042,2
3043,3
3044,4
3045,4
3046,2
3047,3
3048,4
3049,2
3051,4
3052,4
3053,2
3054,4
3055,3
3056,2
3057,4
3058,4
3059,4
3060,2
3061,4
3062,2
3063,4
3064,3
3065,4
3068,3
3069,3
3070,4
3071,3
3072,3
3073,4
3075,4
3076,4
3077,3
3078,2
3079,4
3080,3
3081,5
3082,4
3083,4
3084,4
3085,2
3086,5
3087,4
3088,4
3089,2
3090,4
3092,2
3093,2
3094,4
3095,3
3096,1
3097,3
3098,3
3099,4
3100,3
3101,1
3102,4
3103,4
3104,4
3105,3
3106,4
3107,4
3108,3
3109,4
3110,4
3112,3
3113,4
3114,4
3115,3
3116,4
3117,2
3118,4
3119,3
3120,3
3122,3
3123,3
3124,4
3125,3
3126,2
3127,4
3128,4
3129,1
3130,3
3131,3
3132,4
3133,4
3134,3
3136,3
3137,4
3139,2
3141,4
3142,3
3143,2
3144,1
3145,4
3146,2
3147,2
3148,4
3149,2
3150,4
3151,4
3152,4
3153,3
3154,3
3155,4
3156,3
3157,4
3158,4
3159,4
3160,4
3161,4
3162,4
3163,4
3164,3
3165,4
3166,3
3167,2
3168,4
3169,2
3170,2
3171,5
3172,4
3173,4
3174,4
3175,4
3176,2
3177,2
3178,4
3179,2
3180,4
3181,3
3182,4
3183,4
3184,3
3185,2
3186,3
3187,3
3188,2
3189,3
3190,3
3191,4
3192,4
3193,1
3194,4
3195,4
3196,4
3197,3
3198,2
3199,3
3200,3
3201,4
3202,4
3203,1
3204,3
3205,2
3206,3
3207,3
3208,2
3209,2
3210,3
3212,4
3213,3
3214,3
3215,3
3216,4
3217,5
3218,4
3219,4
3220,3
3221,5
3222,3
3223,3
3224,4
3225,3
3226,5
3227,2
3228,4
3229,4
3230,3
3231,4
3232,2
3233,4
3234,4
3235,2
3236,3
3237,4
3238,4
3239,2
3240,2
3241,2
3242,2
3243,3
3244,4
3245,4
3246,2
3247,2
3248,4
3249,3
3251,4
3253,5
3254,3
3255,4
3256,4
3257,1
3258,1
3259,4
3260,3
3261,4
3262,3
3263,3
3264,4
3265,3
3266,2
3267,5
3268,5
3269,2
3270,2
3271,3
3272,4
3273,4
3274,4
3275,4
3276,3
3277,3
3278,3
3279,2
3280,1
3281,2
3282,4
3283,4
3284,4
3285,2
3286,3
3287,4
3288,4
3289,3
3290,4
3291,4
3292,2
3294,3
3295,4
3296,4
3298,3
3299,4
3300,3
3301,5
3302,3
3303,4
3304,4
3305,4
3306,4
3307,4
3308,4
3309,4
3310,4
3311,2
3312,4
3313,3
3314,4
3315,4
3316,3
3317,4
3318,3
3319,5
3320,5
3321,2
3322,2
3323,4
3324,3
3325,4
3326,4
3327,2
3328,1
3329,4
3330,4
3331,4
3332,2
3333,4
3334,3
3335,4
3336,4
3337,4
3338,3
3339,2
3340,3
3341,2
3342,4
3343,4
3344,4
3346,4
3347,2
3348,4
3349,4
3350,4
3351,4
3352,3
3353,4
3354,4
3355,1
3356,1
3357,4
3358,1
3359,4
3360,3
3361,4
3362,4
3363,4
3364,4
3365,4
3366,4
3367,3
3368,2
3369,2
3370,2
3372,4
3373,4
3374,3
3375,4
3376,4
3377,3
3378,3
3379,4
3380,2
3381,4
3382,3
3383,4
3384,4
3385,3
3386,4
3387,4
3388,2
3389,4
3390,4
3391,4
3393,4
3394,4
3395,3
3397,4
3398,3
3399,3
3400,4
3401,4
3402,5
3403,3
3404,4
3405,4
3406,2
3407,4
3408,3
3411,4
3412,3
3413,4
3415,2
3416,5
3417,4
3418,4
3419,4
3420,3
3421,4
3422,4
3423,4
3424,4
3425,4
3426,2
3427,4
3428,4
3429,2
3430,2
3431,3
3432,3
3433,4
3434,1
3435,5
3436,4
3437,5
3438,4
3439,2
3440,3
3441,1
3442,4
3443,2
3444,4
3445,4
3446,4
3447,4
3448,4
3449,4
3450,4
3451,4
3452,4
3453,3
3454,4
3455,4
3456,4
3458,3
3459,4
3461,3
3462,4
3463,3
3464,4
3465,3
3466,3
3467,4
3468,2
3469,5
3472,4
3473,3
3474,2
3475,3
3476,4
3477,4
3478,2
3479,3
3480,4
3481,4
3482,3
3483,4
3484,4
3485,4
3486,4
3487,2
3488,3
3489,2
3490,4
3491,4
3492,4
3493,4
3494,3
3495,4
3496,4
3497,3
3498,4
3499,3
3500,4
3501,3
3502,4
3503,3
3504,3
3505,2
3506,2
3507,4
3508,2
3509,3
3510,3
3511,2
3512,4
3513,4
3514,4
3515,4
3516,3
3517,3
3518,4
3519,4
3520,4
3521,4
3524,4
3527,4
3528,3
3529,4
3530,3
3532,4
3533,2
3535,5
3536,4
3537,2
3538,3
3539,4
3540,3
3541,3
3542,3
3543,4
3544,2
3545,4
3546,4
3547,3
3548,5
3549,2
3550,2
3551,4
3552,3
3553,3
3554,3
3556,4
3557,2
3558,3
3559,2
3562,1
3563,2
3564,1
3565,4
3566,4
3567,4
3568,4
3569,4
3570,3
3571,2
3572,4
3573,4
3574,4
3575,2
3576,4
3577,2
3579,2
3580,4
3581,4
3582,4
3583,4
3584,4
3585,3
3586,4
3587,4
3588,3
3589,3
3590,4
3592,4
3593,4
3594,3
3595,4
3596,3
3597,4
3598,3
3599,5
3600,3
3601,4
3602,3
3603,4
3604,4
3605,3
3606,3
3607,4
3608,5
3609,4
3610,3
3611,4
3612,4
3613,4
3614,3
3615,3
3616,2
3617,4
3618,3
3619,4
3620,4
3621,2
3622,2
3623,2
3624,1
3625,3
3626,4
3627,4
3628,4
3629,3
3630,3
3631,3
3632,4
3633,4
3634,3
3636,4
3637,3
3638,2
3639,3
3640,4
3641,4
3642,4
3643,4
3644,4
3645,3
3646,4
3647,3
3648,4
3649,4
3650,3
3651,4
3652,4
3653,4
3654,2
3655,4
3656,4
3657,4
3658,3
3659,3
3660,4
3661,2
3662,3
3663,4
3664,2
3665,4
3666,4
3667,2
3668,4
3669,1
3670,5
3671,4
3673,3
3674,3
3675,4
3676,2
3678,4
3679,4
3680,4
3681,4
3682,5
3683,4
3684,4
3685,3
3686,4
3688,4
3689,5
3692,4
3693,4
3694,4
3695,4
3696,4
3697,3
3698,3
3699,4
3700,4
3701,5
3702,3
3703,3
3704,3
3705,1
3706,4
3707,4
3708,4
3710,2
3711,2
3712,5
3713,1
3714,4
3715,2
3716,3
3717,2
3718,5
3719,4
3720,3
3721,3
3722,4
3723,4
3724,5
3725,2
3726,4
3727,4
3728,5
3729,1
3730,4
3731,3
3732,4
3733,4
3734,4
3735,2
3736,5
3737,3
3738,3
3739,4
3740,4
3741,1
3742,4
3743,4
3744,2
3745,4
3746,3
3747,4
3748,2
3749,3
3750,4
3751,3
3752,4
3753,4
3754,4
3755,4
3757,3
3758,3
3759,4
3760,4
3761,4
3762,3
3763,4
3764,4
3765,3
3766,2
3768,4
3769,4
3770,4
3771,5
3772,3
3773,3
3775,3
3777,4
3779,2
3780,2
3781,4
3783,4
3784,4
3785,3
3786,3
3787,4
3788,4
3789,3
3790,3
3791,4
3792,4
3793,4
3794,3
3796,4
3797,2
3798,3
3799,3
3800,3
3801,3
3802,3
3803,3
3804,3
3805,4
3806,4
3807,4
3808,4
3809,4
3810,3
3811,4
3812,4
3813,3
3814,3
3815,3
3816,3
3817,4
3818,4
3819,5
3820,4
3821,4
3822,3
3823,2
3824,3
3825,3
3826,4
3827,4
3828,3
3829,4
3830,3
3831,3
3832,3
3833,4
3834,2
3835,4
3836,4
3837,4
3839,4
3840,2
3841,2
3842,3
3843,2
3844,3
3845,2
3846,3
3847,4
3848,4
3849,4
3850,2
3851,3
3852,4
3853,4
3854,3
3855,4
3856,4
3857,4
3858,4
3859,1
3860,4
3861,4
3862,4
3863,4
3864,3
3865,3
3866,4
3867,2
3868,2
3869,5
3870,2
3871,4
3873,2
3874,4
3876,3
3877,4
3878,4
3879,4
3880,4
3881,4
3882,1
3883,4
3884,2
3885,1
3886,4
3887,4
3888,2
3889,3
3890,3
3891,4
3892,4
3893,4
3894,3
3895,4
3896,3
3897,3
3898,3
3900,2
3901,3
3902,2
3903,4
3904,4
3905,4
3906,4
3907,5
3908,4
3909,4
3910,3
3911,2
3912,3
3913,4
3914,4
3915,2
3916,2
3917,1
3918,2
3919,3
3920,4
3921,4
3922,2
3923,4
3924,3
3925,4
3926,2
3927,4
3928,5
3929,4
3930,3
3931,3
3932,4
3933,2
3935,4
3936,2
3937,2
3938,3
3939,2
3940,4
3941,4
3942,4
3943,2
3944,3
3945,3
3946,2
3947,3
3948,4
3949,4
3950,2
3951,4
3952,4
3953,4
3954,3
3955,4
3956,3
3957,4
3958,4
3959,3
3960,4
3961,4
3962,4
3963,4
3964,4
3965,4
3967,4
3968,4
3969,4
3970,4
3971,3
3972,3
3973,3
3974,3
3975,4
3976,4
3977,3
3978,4
3979,4
3981,3
3982,4
3983,3
3984,3
3985,4
3986,4
3987,3
3989,4
3990,3
3992,5
3994,4
3995,3
3996,2
3997,2
3998,4
3999,4
4000,4
4001,4
4002,3
4003,3
4004,5
4005,2
4006,2
4007,4
4008,3
4009,4
4010,4
4011,4
4012,3
4013,2
4014,4
4015,4
4016,4
4017,3
4018,5
4019,3
4020,4
4021,4
4024,3
4026,2
4027,4
4028,3
4029,4
4030,4
4031,2
4032,3
4033,4
4034,3
4035,3
4036,4
4037,3
4038,3
4040,3
4041,3
4042,1
4043,4
4044,2
4045,4
4046,3
4047,4
4048,4
4049,4
4050,4
4051,3
4052,3
4053,4
4054,4
4055,3
4056,4
4057,3
4058,3
4059,4
4060,4
4061,5
4062,4
4063,4
4064,4
4065,4
4066,3
4067,3
4068,4
4069,4
4070,4
4071,4
4072,3
4073,2
4074,3
4075,3
4076,2
4077,3
4078,4
4079,3
4080,3
4081,3
4082,4
4083,3
4084,4
4086,4
4087,5
4088,4
4089,3
4090,3
4091,4
4092,5
4093,3
4094,4
4095,2
4096,4
4097,2
4098,3
4100,4
4101,2
4102,2
4104,3
4105,4
4106,1
4107,4
4108,2
4109,3
4110,3
4111,4
4112,2
4113,4
4114,2
4115,3
4116,3
4117,1
4118,4
4119,4
4120,2
4121,3
4122,4
4124,4
4125,3
4126,3
4127,2
4128,3
4130,3
4131,4
4132,4
4133,4
4134,3
4135,3
4136,3
4138,1
4139,4
4140,4
4141,3
4142,3
4143,4
4144,4
4145,4
4146,4
4147,3
4148,3
4149,3
4150,4
4151,3
4152,3
4154,2
4155,2
4156,4
4157,4
4158,4
4159,3
4160,2
4161,4
4162,3
4164,2
4165,4
4166,4
4167,4
4170,4
4171,4
4172,4
4173,3
4174,3
4175,5
4176,4
4177,5
4178,4
4179,4
4180,1
4181,2
4182,3
4183,3
4184,4
4185,5
4186,4
4187,4
4188,3
4189,3
4190,3
4191,3
4192,4
4193,4
4194,2
4195,3
4196,4
4197,3
4198,4
4199,4
4200,4
4201,2
4202,5
4203,3
4204,3
4205,4
4206,4
4207,4
4209,4
4210,3
4211,4
4212,2
4213,4
4214,3
4215,2
4216,1
4217,2
4219,4
4220,3
4221,4
4222,3
4223,4
4224,2
4225,4
4226,4
4227,3
4228,4
4229,3
4230,4
4231,4
4232,4
4233,4
4234,4
4235,4
4236,3
4237,4
4238,4
4239,4
4240,3
4241,3
4242,4
4243,4
4244,4
4245,4
4246,3
4247,3
4249,3
4250,4
4252,4
4253,3
4254,4
4255,2
4256,4
4257,4
4258,2
4259,3
4261,2
4262,3
4263,3
4264,4
4265,4
4266,3
4267,3
4268,4
4269,4
4270,2
4271,4
4272,4
4273,3
4275,4
4276,5
4277,3
4279,4
4280,5
4281,4
4282,2
4283,3
4284,4
4285,5
4286,4
4287,5
4288,4
4289,4
4290,4
4292,3
4293,4
4294,4
4295,3
4296,3
4297,4
4298,3
4299,3
4300,2
4301,5
4302,4
4303,4
4304,4
4305,4
4306,4
4307,3
4308,1
4309,3
4310,4
4311,5
4312,3
4313,4
4314,4
4315,3
4316,3
4317,4
4318,2
4319,3
4320,3
4321,3
4322,4
4324,3
4325,4
4326,4
4327,4
4328,2
4329,1
4331,3
4332,4
4333,4
4334,2
4335,4
4336,4
4337,1
4338,3
4339,4
4340,3
4341,4
4342,3
4343,3
4344,2
4345,4
4346,3
4347,4
4348,2
4349,4
4350,2
4351,4
4352,4
4353,3
4354,5
4355,4
4356,4
4357,4
4358,3
4359,4
4360,2
4361,2
4363,3
4364,3
4365,5
4366,3
4367,3
4368,5
4369,3
4370,4
4371,4
4372,4
4373,4
4374,1
4375,3
4376,4
4377,4
4378,5
4379,3
4380,4
4381,4
4382,4
4383,1
4384,3
4385,4
4386,3
4387,4
4388,4
4389,4
4390,4
4391,5
4392,4
4393,3
4394,3
4395,4
4396,2
4397,4
4398,4
4399,4
4400,3
4401,4
4402,4
4403,4
4405,3
4407,3
4408,1
4409,3
4410,3
4411,3
4412,3
4413,4
4414,3
4415,4
4416,1
4417,4
4418,2
4419,4
4420,4
4421,2
4423,3
4424,2
4425,2
4426,4
4427,4
4428,4
4429,3
4430,1
4431,4
4432,4
4433,4
4434,3
4435,5
4436,3
4437,3
4438,4
4439,4
4440,3
4442,3
4443,2
4445,4
4446,4
4447,3
4448,3
4449,4
4450,4
4451,4
4452,4
4453,3
4454,4
4455,4
4456,4
4457,4
4458,4
4459,2
4460,3
4461,4
4462,3
4463,4
4464,3
4465,5
4466,4
4467,2
4468,4
4469,3
4471,4
4472,4
4473,3
4474,4
4475,2
4476,3
4477,4
4478,3
4479,1
4480,4
4481,4
4482,4
4483,4
4484,3
4485,3
4486,4
4487,4
4488,4
4489,3
4490,4
4492,3
4493,4
4494,2
4496,3
4497,3
4498,3
4499,2
4500,4
4501,2
4502,4
4503,2
4504,2
4505,3
4506,4
4507,3
4508,2
4509,2
4510,4
4511,4
4512,4
4513,3
4514,3
4515,2
4516,4
4517,4
4518,4
4519,2
4520,3
4521,4
4522,4
4523,3
4524,2
4525,3
4526,4
4527,3
4528,4
4529,4
4530,3
4531,4
4532,2
4533,4
4534,2
4536,4
4538,2
4539,3
4540,2
4541,4
4542,3
4543,3
4544,4
4545,2
4546,4
4547,4
4548,2
4549,4
4550,4
4551,4
4552,4
4553,4
4554,3
4555,2
4556,4
4557,4
4558,4
4559,4
4560,4
4561,4
4562,3
4563,4
4564,4
4565,4
4566,5
4567,3
4568,4
4569,3
4571,4
4573,4
4575,4
4576,2
4577,5
4580,3
4581,3
4582,2
4584,3
4586,3
4587,4
4588,4
4589,3
4591,4
4592,4
4593,3
4595,4
4596,4
4597,2
4598,4
4599,4
4600,2
4601,4
4602,4
4603,4
4604,3
4605,3
4606,4
4607,2
4608,4
4609,4
4610,3
4611,2
4612,4
4613,2
4614,4
4615,3
4616,2
4617,4
4618,4
4619,4
4620,3
4621,2
4622,3
4623,4
4624,4
4625,3
4626,3
4627,4
4628,3
4629,4
4630,4
4631,4
4632,4
4633,3
4634,4
4635,3
4636,3
4637,4
4638,2
4639,2
4640,4
4641,3
4642,2
4645,4
4646,4
4647,4
4649,4
4651,4
4652,4
4653,4
4654,4
4655,4
4656,2
4657,4
4658,2
4659,3
4660,4
4661,5
4662,3
4663,3
4664,4
4666,3
4668,2
4669,4
4671,4
4672,3
4673,2
4674,4
4675,4
4676,4
4677,3
4678,2
4679,4
4680,4
4681,4
4682,4
4683,3
4684,4
4685,3
4686,4
4687,2
4688,4
4689,4
4690,3
4691,4
4692,4
4693,3
4694,4
4695,5
4697,3
4698,4
4699,2
4700,4
4701,3
4702,4
4703,5
4704,4
4705,4
4706,4
4707,3
4708,3
4709,4
4710,4
4711,3
4712,2
4713,5
4714,4
4715,4
4716,3
4717,2
4718,3
4719,5
4720,4
4721,4
4722,4
4723,3
4724,3
4725,4
4726,2
4727,4
4728,4
4729,4
4730,3
4731,3
4732,4
4733,2
4734,3
4735,2
4736,4
4737,3
4738,4
4739,3
4742,4
4743,3
4744,4
4745,2
4746,4
4747,2
4748,2
4750,3
4751,3
4752,4
4753,4
4754,4
4755,4
4756,3
4757,4
4758,3
4759,5
4760,4
4761,4
4762,4
4763,4
4764,1
4765,3
4766,4
4767,4
4768,4
4769,3
4770,4
4771,3
4772,2
4773,4
4774,4
4775,4
4776,4
4777,5
4778,4
4779,3
4780,4
4781,4
4782,3
4783,3
4784,3
4785,3
4786,2
4787,4
4788,3
4789,2
4790,4
4791,3
4792,5
4793,2
4794,3
4795,3
4796,4
4797,4
4798,4
4799,5
4800,4
4801,4
4802,2
4803,3
4804,5
4805,5
4806,4
4807,4
4808,4
4809,4
4810,3
4811,4
4812,2
4813,3
4814,2
4815,3
4816,4
4817,2
4818,4
4819,4
4820,3
4821,4
4822,3
4823,5
4824,4
4825,4
4826,2
4827,3
4828,4
4829,5
4830,4
4831,4
4832,3
4833,4
4834,3
4836,4
4837,5
4838,3
4839,4
4840,3
4841,5
4842,4
4843,4
4844,4
4845,3
4846,4
4847,4
4848,4
4850,4
4851,2
4852,4
4853,3
4854,4
4855,3
4856,3
4857,3
4858,4
4859,3
4860,5
4861,4
4862,5
4863,3
4864,4
4865,3
4866,4
4867,3
4868,4
4869,4
4870,2
4871,2
4872,4
4873,3
4874,2
4875,4
4876,3
4877,4
4878,3
4879,2
4880,3
4881,4
4882,4
4883,4
4884,4
4885,3
4886,1
4887,1
4888,4
4889,3
4890,4
4891,4
4892,4
4893,3
4894,3
4895,3
4896,4
4897,4
4898,4
4899,5
